DisplayHandler_Testbench.vcd
$date
  Thu Apr 23 16:17:12 2026
$end
$version
  GHDL v0
$end
$timescale
  1 fs
$end
$scope module standard $end
$upscope $end
$scope module std_logic_1164 $end
$upscope $end
$scope module numeric_std $end
$upscope $end
$scope module math_real $end
$upscope $end
$scope module displayhandler_testbench $end
$var reg 1 ! start $end
$var reg 1 " gonext $end
$var reg 1 # prev $end
$var reg 1 $ clk $end
$var reg 1 % dp $end
$var reg 1 & dp_check $end
$var reg 1 ' pulse $end
$var reg 1 ( pulse2 $end
$var reg 7 ) sevensegment[6:0] $end
$var reg 7 * abcdefg[6:0] $end
$var reg 1 + reset $end
$var reg 1 , success $end
$var reg 8 - whichsegment[7:0] $end
$var reg 8 . i0[7:0] $end
$var reg 8 / iteration[7:0] $end
$var reg 8 0 play1[7:0] $end
$var reg 8 1 play2[7:0] $end
$var reg 8 2 play3[7:0] $end
$var reg 8 3 play4[7:0] $end
$var reg 4 4 left[3:0] $end
$var reg 4 5 right[3:0] $end
$var reg 4 6 o0[3:0] $end
$var reg 4 7 o1[3:0] $end
$var reg 4 8 o2[3:0] $end
$var reg 4 9 o3[3:0] $end
$var reg 4 : i1[3:0] $end
$var reg 3 ; debug[2:0] $end
$scope module dut $end
$var reg 1 < reset $end
$var reg 1 = start $end
$var reg 1 > clk $end
$var reg 1 ? pulse $end
$var reg 1 @ pulse2 $end
$var reg 7 A sevensegment[6:0] $end
$var reg 1 B dp $end
$var reg 8 C whichsegment[7:0] $end
$var reg 8 D iteration[7:0] $end
$var reg 8 E play1[7:0] $end
$var reg 8 F play2[7:0] $end
$var reg 8 G play3[7:0] $end
$var reg 8 H play4[7:0] $end
$var reg 4 I q[3:0] $end
$var reg 4 J gotodecoder[3:0] $end
$var reg 4 K x1_de[3:0] $end
$var reg 4 L x6_de[3:0] $end
$var reg 4 M it_left[3:0] $end
$var reg 4 N it_right[3:0] $end
$var reg 4 O it_digit0[3:0] $end
$var reg 4 P it_digit1[3:0] $end
$var reg 4 Q it_digit2[3:0] $end
$var reg 4 R it_digit3[3:0] $end
$var reg 4 S p1_left[3:0] $end
$var reg 4 T p1_right[3:0] $end
$var reg 4 U p1_0[3:0] $end
$var reg 4 V p1_1[3:0] $end
$var reg 4 W p1_2[3:0] $end
$var reg 4 X p1_3[3:0] $end
$var reg 4 Y p2_left[3:0] $end
$var reg 4 Z p2_right[3:0] $end
$var reg 4 [ p2_0[3:0] $end
$var reg 4 \ p2_1[3:0] $end
$var reg 4 ] p2_2[3:0] $end
$var reg 4 ^ p2_3[3:0] $end
$var reg 4 _ p3_left[3:0] $end
$var reg 4 ` p3_right[3:0] $end
$var reg 4 a p3_0[3:0] $end
$var reg 4 b p3_1[3:0] $end
$var reg 4 c p3_2[3:0] $end
$var reg 4 d p3_3[3:0] $end
$var reg 4 e p4_left[3:0] $end
$var reg 4 f p4_right[3:0] $end
$var reg 4 g p4_0[3:0] $end
$var reg 4 h p4_1[3:0] $end
$var reg 4 i p4_2[3:0] $end
$var reg 4 j p4_3[3:0] $end
$var reg 1 k p $end
$var reg 1 l dp_type $end
$var reg 1 m dont $end
$var reg 1 n pulse_combined $end
$var reg 1 o reset_disconnect $end
$var reg 1 p x1_ex $end
$var reg 1 q x6_ex $end
$var reg 3 r debug[2:0] $end
$comment state_reg is not handled $end
$comment state_next is not handled $end
$scope module cycle $end
$var reg 1 s reset $end
$var reg 1 t clk $end
$var reg 1 u en $end
$var reg 4 v n[3:0] $end
$var reg 4 w q[3:0] $end
$var reg 1 x p $end
$var reg 4 y r_reg[3:0] $end
$var reg 4 z r_next[3:0] $end
$var reg 4 { r_inc[3:0] $end
$var reg 1 | rollover $end
$upscope $end
$scope module it $end
$var reg 8 } i0[7:0] $end
$var reg 4 !" left[3:0] $end
$var reg 4 "" right[3:0] $end
$var reg 4 #" o0[3:0] $end
$var reg 4 $" o1[3:0] $end
$var reg 4 %" o2[3:0] $end
$var reg 4 &" o3[3:0] $end
$upscope $end
$scope module p1 $end
$var reg 8 '" i0[7:0] $end
$var reg 4 (" left[3:0] $end
$var reg 4 )" right[3:0] $end
$var reg 4 *" o0[3:0] $end
$var reg 4 +" o1[3:0] $end
$var reg 4 ," o2[3:0] $end
$var reg 4 -" o3[3:0] $end
$upscope $end
$scope module p2 $end
$var reg 8 ." i0[7:0] $end
$var reg 4 /" left[3:0] $end
$var reg 4 0" right[3:0] $end
$var reg 4 1" o0[3:0] $end
$var reg 4 2" o1[3:0] $end
$var reg 4 3" o2[3:0] $end
$var reg 4 4" o3[3:0] $end
$upscope $end
$scope module p3 $end
$var reg 8 5" i0[7:0] $end
$var reg 4 6" left[3:0] $end
$var reg 4 7" right[3:0] $end
$var reg 4 8" o0[3:0] $end
$var reg 4 9" o1[3:0] $end
$var reg 4 :" o2[3:0] $end
$var reg 4 ;" o3[3:0] $end
$upscope $end
$scope module p4 $end
$var reg 8 <" i0[7:0] $end
$var reg 4 =" left[3:0] $end
$var reg 4 >" right[3:0] $end
$var reg 4 ?" o0[3:0] $end
$var reg 4 @" o1[3:0] $end
$var reg 4 A" o2[3:0] $end
$var reg 4 B" o3[3:0] $end
$upscope $end
$scope module decoder $end
$var reg 4 C" i[3:0] $end
$var reg 7 D" abcdefg[6:0] $end
$upscope $end
$upscope $end
$scope module hextofourdigit_inst $end
$var reg 8 E" i0[7:0] $end
$var reg 4 F" left[3:0] $end
$var reg 4 G" right[3:0] $end
$var reg 4 H" o0[3:0] $end
$var reg 4 I" o1[3:0] $end
$var reg 4 J" o2[3:0] $end
$var reg 4 K" o3[3:0] $end
$upscope $end
$scope module sevensegmentdecoder_inst $end
$var reg 4 L" i[3:0] $end
$var reg 7 M" abcdefg[6:0] $end
$upscope $end
$upscope $end
$enddefinitions $end
#0
0!
0"
0#
0$
1%
0&
0'
0(
b1111111 )
b1110000 *
1+
1,
b11111111 -
b00000000 .
b00000000 /
b00000000 0
b00000000 1
b00000000 2
b00000000 3
b0000 4
b0000 5
b0000 6
b0000 7
b0000 8
b0000 9
b1110 :
bUUU ;
1<
0=
0>
0?
0@
b1111111 A
1B
b11111111 C
b00000000 D
b00000000 E
b00000000 F
b00000000 G
b00000000 H
bUUUU I
b1111 J
b1111 K
b1111 L
b0000 M
b0000 N
b0000 O
b0000 P
b0000 Q
b0000 R
b0000 S
b0000 T
b0000 U
b0000 V
b0000 W
b0000 X
b0000 Y
b0000 Z
b0000 [
b0000 \
b0000 ]
b0000 ^
b0000 _
b0000 `
b0000 a
b0000 b
b0000 c
b0000 d
b0000 e
b0000 f
b0000 g
b0000 h
b0000 i
b0000 j
0k
1l
0m
0n
0o
1p
0q
b001 r
0s
0t
0u
b1000 v
bUUUU w
0x
bUUUU y
bXXXX z
bXXXX {
0|
b00000000 }
b0000 !"
b0000 ""
b0000 #"
b0000 $"
b0000 %"
b0000 &"
b00000000 '"
b0000 ("
b0000 )"
b0000 *"
b0000 +"
b0000 ,"
b0000 -"
b00000000 ."
b0000 /"
b0000 0"
b0000 1"
b0000 2"
b0000 3"
b0000 4"
b00000000 5"
b0000 6"
b0000 7"
b0000 8"
b0000 9"
b0000 :"
b0000 ;"
b00000000 <"
b0000 ="
b0000 >"
b0000 ?"
b0000 @"
b0000 A"
b0000 B"
b1111 C"
b1111111 D"
b00000000 E"
b0000 F"
b0000 G"
b0000 H"
b0000 I"
b0000 J"
b0000 K"
b1110 L"
b1110000 M"
#5000000
1$
1>
1t
#6000000
0+
0<
#7000000
b1111111 *
b1111 :
b1111 L"
b1111111 M"
#7001001
1"
#10000000
0$
0>
0t
#15000000
1$
1>
1t
#17001001
0"
#20000000
0$
0>
0t
#25000000
1$
1>
1t
#27002002
1"
#30000000
0$
0>
0t
#35000000
1$
1>
1t
#37002002
0"
#40000000
0$
0>
0t
#45000000
1$
1>
1t
#50000000
0$
0>
0t
#55000000
1$
1>
1t
#57002002
1'
1?
1n
1u
#60000000
0$
0>
0t
#65000000
1$
1>
bXXXX I
1t
bXXXX w
bXXXX y
#67002002
0'
0?
0n
0u
#67003003
1"
#70000000
0$
0>
0t
#75000000
1$
1>
1t
#77003003
0"
#80000000
0$
0>
0t
#85000000
1$
1>
1t
#87004004
1"
#90000000
0$
0>
0t
#95000000
1$
1>
1t
#97004004
0"
#100000000
0$
0>
0t
#105000000
1$
1>
1t
#110000000
0$
0>
0t
#115000000
1$
1>
1t
#117004004
1'
1?
1n
1u
#120000000
0$
0>
0t
#125000000
1$
1>
1t
#127004004
0'
0?
0n
0u
#127005005
1"
#130000000
0$
0>
0t
#135000000
1$
1>
1t
#137005005
0"
#140000000
0$
0>
0t
#145000000
1$
1>
1t
#147006006
1"
#150000000
0$
0>
0t
#155000000
1$
1>
1t
#157006006
0"
#160000000
0$
0>
0t
#165000000
1$
1>
1t
#170000000
0$
0>
0t
#175000000
1$
1>
1t
#177006006
1'
1?
1n
1u
#180000000
0$
0>
0t
#185000000
1$
1>
1t
#187006006
0'
0?
0n
0u
#187007007
1"
#190000000
0$
0>
0t
#195000000
1$
1>
1t
#197007007
0"
#200000000
0$
0>
0t
#205000000
1$
1>
1t
#207008008
1"
#210000000
0$
0>
0t
#215000000
1$
1>
1t
#217008008
0"
#220000000
0$
0>
0t
#225000000
1$
1>
1t
#230000000
0$
0>
0t
#235000000
1$
1>
1t
#237008008
1'
1?
1n
1u
#240000000
0$
0>
0t
#245000000
1$
1>
1t
#247008008
0'
0?
0n
0u
#247009009
1"
#250000000
0$
0>
0t
#255000000
1$
1>
1t
#257009009
0"
#260000000
0$
0>
0t
#265000000
1$
1>
1t
#267010010
1"
#270000000
0$
0>
0t
#275000000
1$
1>
1t
#277010010
0"
#280000000
0$
0>
0t
#285000000
1$
1>
1t
#290000000
0$
0>
0t
#295000000
1$
1>
1t
#297010010
1'
1?
1n
1u
#300000000
0$
0>
0t
#305000000
1$
1>
1t
#307010010
0'
0?
0n
0u
#307011011
1"
#310000000
0$
0>
0t
#315000000
1$
1>
1t
#317011011
0"
#320000000
0$
0>
0t
#325000000
1$
1>
1t
#327012012
1"
#330000000
0$
0>
0t
#335000000
1$
1>
1t
#337012012
0"
#340000000
0$
0>
0t
#345000000
1$
1>
1t
#350000000
0$
0>
0t
#355000000
1$
1>
1t
#357012012
1'
1?
1n
1u
#360000000
0$
0>
0t
#365000000
1$
1>
1t
#367012012
0'
0?
0n
0u
#367013013
1"
#370000000
0$
0>
0t
#375000000
1$
1>
1t
#377013013
0"
#380000000
0$
0>
0t
#385000000
1$
1>
1t
#387014014
1"
#390000000
0$
0>
0t
#395000000
1$
1>
1t
#397014014
0"
#400000000
0$
0>
0t
#405000000
1$
1>
1t
#410000000
0$
0>
0t
#415000000
1$
1>
1t
#417014014
1'
1?
1n
1u
#420000000
0$
0>
0t
#425000000
1$
1>
1t
#427014014
0'
0?
0n
0u
#427015015
1"
#430000000
0$
0>
0t
#435000000
1$
1>
1t
#437015015
0"
#440000000
0$
0>
0t
#445000000
1$
1>
1t
#447016016
1"
#450000000
0$
0>
0t
#455000000
1$
1>
1t
#457016016
0"
#460000000
0$
0>
0t
#465000000
1$
1>
1t
#470000000
0$
0>
0t
#475000000
1$
1>
1t
#477016016
1'
1?
1n
1u
#480000000
0$
0>
0t
#485000000
1$
1>
1t
#487016016
0'
b00000001 .
b00000001 /
b00000001 0
b00000001 1
b00000001 2
b00000001 3
b0110 7
b0010 8
b0101 9
0?
b00000001 D
b00000001 E
b00000001 F
b00000001 G
b00000001 H
b0110 P
b0010 Q
b0101 R
b0110 V
b0010 W
b0101 X
b0110 \
b0010 ]
b0101 ^
b0110 b
b0010 c
b0101 d
b0110 h
b0010 i
b0101 j
0n
0u
b00000001 }
b0110 $"
b0010 %"
b0101 &"
b00000001 '"
b0110 +"
b0010 ,"
b0101 -"
b00000001 ."
b0110 2"
b0010 3"
b0101 4"
b00000001 5"
b0110 9"
b0010 :"
b0101 ;"
b00000001 <"
b0110 @"
b0010 A"
b0101 B"
b00000001 E"
b0110 I"
b0010 J"
b0101 K"
#487017017
1"
#490000000
0$
0>
0t
#495000000
1$
1>
1t
#497017017
0"
#500000000
0$
0>
0t
#505000000
1$
1>
1t
#507018018
1"
#510000000
0$
0>
0t
#515000000
1$
1>
1t
#517018018
0"
#520000000
0$
0>
0t
#525000000
1$
1>
1t
#530000000
0$
0>
0t
#535000000
1$
1>
1t
#537018018
1'
1?
1n
1u
#540000000
0$
0>
0t
#545000000
1$
1>
1t
#547018018
0'
0?
0n
0u
#547019019
1"
#550000000
0$
0>
0t
#555000000
1$
1>
1t
#557019019
0"
#560000000
0$
0>
0t
#565000000
1$
1>
1t
#567020020
1"
#570000000
0$
0>
0t
#575000000
1$
1>
1t
#577020020
0"
#580000000
0$
0>
0t
#585000000
1$
1>
1t
#590000000
0$
0>
0t
#595000000
1$
1>
1t
#597020020
1'
1?
1n
1u
#600000000
0$
0>
0t
#605000000
1$
1>
1t
#607020020
0'
0?
0n
0u
#607021021
1"
#610000000
0$
0>
0t
#615000000
1$
1>
1t
#617021021
0"
#620000000
0$
0>
0t
#625000000
1$
1>
1t
#627022022
1"
#630000000
0$
0>
0t
#635000000
1$
1>
1t
#637022022
0"
#640000000
0$
0>
0t
#645000000
1$
1>
1t
#650000000
0$
0>
0t
#655000000
1$
1>
1t
#657022022
1'
1?
1n
1u
#660000000
0$
0>
0t
#665000000
1$
1>
1t
#667022022
0'
0?
0n
0u
#667023023
1"
#670000000
0$
0>
0t
#675000000
1$
1>
1t
#677023023
0"
#680000000
0$
0>
0t
#685000000
1$
1>
1t
#687024024
1"
#690000000
0$
0>
0t
#695000000
1$
1>
1t
#697024024
0"
#700000000
0$
0>
0t
#705000000
1$
1>
1t
#710000000
0$
0>
0t
#715000000
1$
1>
1t
#717024024
1'
1?
1n
1u
#720000000
0$
0>
0t
#725000000
1$
1>
1t
#727024024
0'
0?
0n
0u
#727025025
1"
#730000000
0$
0>
0t
#735000000
1$
1>
1t
#737025025
0"
#740000000
0$
0>
0t
#745000000
1$
1>
1t
#747026026
1"
#750000000
0$
0>
0t
#755000000
1$
1>
1t
#757026026
0"
#760000000
0$
0>
0t
#765000000
1$
1>
1t
#770000000
0$
0>
0t
#775000000
1$
1>
1t
#777026026
1'
1?
1n
1u
#780000000
0$
0>
0t
#785000000
1$
1>
1t
#787026026
0'
0?
0n
0u
#787027027
1"
#790000000
0$
0>
0t
#795000000
1$
1>
1t
#797027027
0"
#800000000
0$
0>
0t
#805000000
1$
1>
1t
#807028028
1"
#810000000
0$
0>
0t
#815000000
1$
1>
1t
#817028028
0"
#820000000
0$
0>
0t
#825000000
1$
1>
1t
#830000000
0$
0>
0t
#835000000
1$
1>
1t
#837028028
1'
1?
1n
1u
#840000000
0$
0>
0t
#845000000
1$
1>
1t
#847028028
0'
0?
0n
0u
#847029029
1"
#850000000
0$
0>
0t
#855000000
1$
1>
1t
#857029029
0"
#860000000
0$
0>
0t
#865000000
1$
1>
1t
#867030030
1"
#870000000
0$
0>
0t
#875000000
1$
1>
1t
#877030030
0"
#880000000
0$
0>
0t
#885000000
1$
1>
1t
#890000000
0$
0>
0t
#895000000
1$
1>
1t
#897030030
1'
1?
1n
1u
#900000000
0$
0>
0t
#905000000
1$
1>
1t
#907030030
0'
0?
0n
0u
#907031031
1"
#910000000
0$
0>
0t
#915000000
1$
1>
1t
#917031031
0"
#920000000
0$
0>
0t
#925000000
1$
1>
1t
#927032032
1"
#930000000
0$
0>
0t
#935000000
1$
1>
1t
#937032032
0"
#940000000
0$
0>
0t
#945000000
1$
1>
1t
#950000000
0$
0>
0t
#955000000
1$
1>
1t
#957032032
1'
1?
1n
1u
#960000000
0$
0>
0t
#965000000
1$
1>
1t
#967032032
0'
b00000010 .
b00000010 /
b00000010 0
b00000010 1
b00000010 2
b00000010 3
b0001 6
b0010 7
b0101 8
b0000 9
0?
b00000010 D
b00000010 E
b00000010 F
b00000010 G
b00000010 H
b0001 O
b0010 P
b0101 Q
b0000 R
b0001 U
b0010 V
b0101 W
b0000 X
b0001 [
b0010 \
b0101 ]
b0000 ^
b0001 a
b0010 b
b0101 c
b0000 d
b0001 g
b0010 h
b0101 i
b0000 j
0n
0u
b00000010 }
b0001 #"
b0010 $"
b0101 %"
b0000 &"
b00000010 '"
b0001 *"
b0010 +"
b0101 ,"
b0000 -"
b00000010 ."
b0001 1"
b0010 2"
b0101 3"
b0000 4"
b00000010 5"
b0001 8"
b0010 9"
b0101 :"
b0000 ;"
b00000010 <"
b0001 ?"
b0010 @"
b0101 A"
b0000 B"
b00000010 E"
b0001 H"
b0010 I"
b0101 J"
b0000 K"
#967033033
1"
#970000000
0$
0>
0t
#975000000
1$
1>
1t
#977033033
0"
#980000000
0$
0>
0t
#985000000
1$
1>
1t
#987034034
1"
#990000000
0$
0>
0t
#995000000
1$
1>
1t
#997034034
0"
#1000000000
0$
0>
0t
#1005000000
1$
1>
1t
#1010000000
0$
0>
0t
#1015000000
1$
1>
1t
#1017034034
1'
1?
1n
1u
#1020000000
0$
0>
0t
#1025000000
1$
1>
1t
#1027034034
0'
0?
0n
0u
#1027035035
1"
#1030000000
0$
0>
0t
#1035000000
1$
1>
1t
#1037035035
0"
#1040000000
0$
0>
0t
#1045000000
1$
1>
1t
#1047036036
1"
#1050000000
0$
0>
0t
#1055000000
1$
1>
1t
#1057036036
0"
#1060000000
0$
0>
0t
#1065000000
1$
1>
1t
#1070000000
0$
0>
0t
#1075000000
1$
1>
1t
#1077036036
1'
1?
1n
1u
#1080000000
0$
0>
0t
#1085000000
1$
1>
1t
#1087036036
0'
0?
0n
0u
#1087037037
1"
#1090000000
0$
0>
0t
#1095000000
1$
1>
1t
#1097037037
0"
#1100000000
0$
0>
0t
#1105000000
1$
1>
1t
#1107038038
1"
#1110000000
0$
0>
0t
#1115000000
1$
1>
1t
#1117038038
0"
#1120000000
0$
0>
0t
#1125000000
1$
1>
1t
#1130000000
0$
0>
0t
#1135000000
1$
1>
1t
#1137038038
1'
1?
1n
1u
#1140000000
0$
0>
0t
#1145000000
1$
1>
1t
#1147038038
0'
0?
0n
0u
#1147039039
1"
#1150000000
0$
0>
0t
#1155000000
1$
1>
1t
#1157039039
0"
#1160000000
0$
0>
0t
#1165000000
1$
1>
1t
#1167040040
1"
#1170000000
0$
0>
0t
#1175000000
1$
1>
1t
#1177040040
0"
#1180000000
0$
0>
0t
#1185000000
1$
1>
1t
#1190000000
0$
0>
0t
#1195000000
1$
1>
1t
#1197040040
1'
1?
1n
1u
#1200000000
0$
0>
0t
#1205000000
1$
1>
1t
#1207040040
0'
0?
0n
0u
#1207041041
1"
#1210000000
0$
0>
0t
#1215000000
1$
1>
1t
#1217041041
0"
#1220000000
0$
0>
0t
#1225000000
1$
1>
1t
#1227042042
1"
#1230000000
0$
0>
0t
#1235000000
1$
1>
1t
#1237042042
0"
#1240000000
0$
0>
0t
#1245000000
1$
1>
1t
#1250000000
0$
0>
0t
#1255000000
1$
1>
1t
#1257042042
1'
1?
1n
1u
#1260000000
0$
0>
0t
#1265000000
1$
1>
1t
#1267042042
0'
0?
0n
0u
#1267043043
1"
#1270000000
0$
0>
0t
#1275000000
1$
1>
1t
#1277043043
0"
#1280000000
0$
0>
0t
#1285000000
1$
1>
1t
#1287044044
1"
#1290000000
0$
0>
0t
#1295000000
1$
1>
1t
#1297044044
0"
#1300000000
0$
0>
0t
#1305000000
1$
1>
1t
#1310000000
0$
0>
0t
#1315000000
1$
1>
1t
#1317044044
1'
1?
1n
1u
#1320000000
0$
0>
0t
#1325000000
1$
1>
1t
#1327044044
0'
0?
0n
0u
#1327045045
1"
#1330000000
0$
0>
0t
#1335000000
1$
1>
1t
#1337045045
0"
#1340000000
0$
0>
0t
#1345000000
1$
1>
1t
#1347046046
1"
#1350000000
0$
0>
0t
#1355000000
1$
1>
1t
#1357046046
0"
#1360000000
0$
0>
0t
#1365000000
1$
1>
1t
#1370000000
0$
0>
0t
#1375000000
1$
1>
1t
#1377046046
1'
1?
1n
1u
#1380000000
0$
0>
0t
#1385000000
1$
1>
1t
#1387046046
0'
0?
0n
0u
#1387047047
1"
#1390000000
0$
0>
0t
#1395000000
1$
1>
1t
#1397047047
0"
#1400000000
0$
0>
0t
#1405000000
1$
1>
1t
#1407048048
1"
#1410000000
0$
0>
0t
#1415000000
1$
1>
1t
#1417048048
0"
#1420000000
0$
0>
0t
#1425000000
1$
1>
1t
#1430000000
0$
0>
0t
#1435000000
1$
1>
1t
#1437048048
1'
1?
1n
1u
#1440000000
0$
0>
0t
#1445000000
1$
1>
1t
#1447048048
0'
b00000011 .
b00000011 /
b00000011 0
b00000011 1
b00000011 2
b00000011 3
b1000 7
b0111 8
b0101 9
0?
b00000011 D
b00000011 E
b00000011 F
b00000011 G
b00000011 H
b1000 P
b0111 Q
b0101 R
b1000 V
b0111 W
b0101 X
b1000 \
b0111 ]
b0101 ^
b1000 b
b0111 c
b0101 d
b1000 h
b0111 i
b0101 j
0n
0u
b00000011 }
b1000 $"
b0111 %"
b0101 &"
b00000011 '"
b1000 +"
b0111 ,"
b0101 -"
b00000011 ."
b1000 2"
b0111 3"
b0101 4"
b00000011 5"
b1000 9"
b0111 :"
b0101 ;"
b00000011 <"
b1000 @"
b0111 A"
b0101 B"
b00000011 E"
b1000 I"
b0111 J"
b0101 K"
#1447049049
1"
#1450000000
0$
0>
0t
#1455000000
1$
1>
1t
#1457049049
0"
#1460000000
0$
0>
0t
#1465000000
1$
1>
1t
#1467050050
1"
#1470000000
0$
0>
0t
#1475000000
1$
1>
1t
#1477050050
0"
#1480000000
0$
0>
0t
#1485000000
1$
1>
1t
#1490000000
0$
0>
0t
#1495000000
1$
1>
1t
#1497050050
1'
1?
1n
1u
#1500000000
0$
0>
0t
#1505000000
1$
1>
1t
#1507050050
0'
0?
0n
0u
#1507051051
1"
#1510000000
0$
0>
0t
#1515000000
1$
1>
1t
#1517051051
0"
#1520000000
0$
0>
0t
#1525000000
1$
1>
1t
#1527052052
1"
#1530000000
0$
0>
0t
#1535000000
1$
1>
1t
#1537052052
0"
#1540000000
0$
0>
0t
#1545000000
1$
1>
1t
#1550000000
0$
0>
0t
#1555000000
1$
1>
1t
#1557052052
1'
1?
1n
1u
#1560000000
0$
0>
0t
#1565000000
1$
1>
1t
#1567052052
0'
0?
0n
0u
#1567053053
1"
#1570000000
0$
0>
0t
#1575000000
1$
1>
1t
#1577053053
0"
#1580000000
0$
0>
0t
#1585000000
1$
1>
1t
#1587054054
1"
#1590000000
0$
0>
0t
#1595000000
1$
1>
1t
#1597054054
0"
#1600000000
0$
0>
0t
#1605000000
1$
1>
1t
#1610000000
0$
0>
0t
#1615000000
1$
1>
1t
#1617054054
1'
1?
1n
1u
#1620000000
0$
0>
0t
#1625000000
1$
1>
1t
#1627054054
0'
0?
0n
0u
#1627055055
1"
#1630000000
0$
0>
0t
#1635000000
1$
1>
1t
#1637055055
0"
#1640000000
0$
0>
0t
#1645000000
1$
1>
1t
#1647056056
1"
#1650000000
0$
0>
0t
#1655000000
1$
1>
1t
#1657056056
0"
#1660000000
0$
0>
0t
#1665000000
1$
1>
1t
#1670000000
0$
0>
0t
#1675000000
1$
1>
1t
#1677056056
1'
1?
1n
1u
#1680000000
0$
0>
0t
#1685000000
1$
1>
1t
#1687056056
0'
0?
0n
0u
#1687057057
1"
#1690000000
0$
0>
0t
#1695000000
1$
1>
1t
#1697057057
0"
#1700000000
0$
0>
0t
#1705000000
1$
1>
1t
#1707058058
1"
#1710000000
0$
0>
0t
#1715000000
1$
1>
1t
#1717058058
0"
#1720000000
0$
0>
0t
#1725000000
1$
1>
1t
#1730000000
0$
0>
0t
#1735000000
1$
1>
1t
#1737058058
1'
1?
1n
1u
#1740000000
0$
0>
0t
#1745000000
1$
1>
1t
#1747058058
0'
0?
0n
0u
#1747059059
1"
#1750000000
0$
0>
0t
#1755000000
1$
1>
1t
#1757059059
0"
#1760000000
0$
0>
0t
#1765000000
1$
1>
1t
#1767060060
1"
#1770000000
0$
0>
0t
#1775000000
1$
1>
1t
#1777060060
0"
#1780000000
0$
0>
0t
#1785000000
1$
1>
1t
#1790000000
0$
0>
0t
#1795000000
1$
1>
1t
#1797060060
1'
1?
1n
1u
#1800000000
0$
0>
0t
#1805000000
1$
1>
1t
#1807060060
0'
0?
0n
0u
#1807061061
1"
#1810000000
0$
0>
0t
#1815000000
1$
1>
1t
#1817061061
0"
#1820000000
0$
0>
0t
#1825000000
1$
1>
1t
#1827062062
1"
#1830000000
0$
0>
0t
#1835000000
1$
1>
1t
#1837062062
0"
#1840000000
0$
0>
0t
#1845000000
1$
1>
1t
#1850000000
0$
0>
0t
#1855000000
1$
1>
1t
#1857062062
1'
1?
1n
1u
#1860000000
0$
0>
0t
#1865000000
1$
1>
1t
#1867062062
0'
0?
0n
0u
#1867063063
1"
#1870000000
0$
0>
0t
#1875000000
1$
1>
1t
#1877063063
0"
#1880000000
0$
0>
0t
#1885000000
1$
1>
1t
#1887064064
1"
#1890000000
0$
0>
0t
#1895000000
1$
1>
1t
#1897064064
0"
#1900000000
0$
0>
0t
#1905000000
1$
1>
1t
#1910000000
0$
0>
0t
#1915000000
1$
1>
1t
#1917064064
1'
1?
1n
1u
#1920000000
0$
0>
0t
#1925000000
1$
1>
1t
#1927064064
0'
b00000100 .
b00000100 /
b00000100 0
b00000100 1
b00000100 2
b00000100 3
b0010 6
b0101 7
b0000 8
b0000 9
0?
b00000100 D
b00000100 E
b00000100 F
b00000100 G
b00000100 H
b0010 O
b0101 P
b0000 Q
b0000 R
b0010 U
b0101 V
b0000 W
b0000 X
b0010 [
b0101 \
b0000 ]
b0000 ^
b0010 a
b0101 b
b0000 c
b0000 d
b0010 g
b0101 h
b0000 i
b0000 j
0n
0u
b00000100 }
b0010 #"
b0101 $"
b0000 %"
b0000 &"
b00000100 '"
b0010 *"
b0101 +"
b0000 ,"
b0000 -"
b00000100 ."
b0010 1"
b0101 2"
b0000 3"
b0000 4"
b00000100 5"
b0010 8"
b0101 9"
b0000 :"
b0000 ;"
b00000100 <"
b0010 ?"
b0101 @"
b0000 A"
b0000 B"
b00000100 E"
b0010 H"
b0101 I"
b0000 J"
b0000 K"
#1927065065
1"
#1930000000
0$
0>
0t
#1935000000
1$
1>
1t
#1937065065
0"
#1940000000
0$
0>
0t
#1945000000
1$
1>
1t
#1947066066
1"
#1950000000
0$
0>
0t
#1955000000
1$
1>
1t
#1957066066
0"
#1960000000
0$
0>
0t
#1965000000
1$
1>
1t
#1970000000
0$
0>
0t
#1975000000
1$
1>
1t
#1977066066
1'
1?
1n
1u
#1980000000
0$
0>
0t
#1985000000
1$
1>
1t
#1987066066
0'
0?
0n
0u
#1987067067
1"
#1990000000
0$
0>
0t
#1995000000
1$
1>
1t
#1997067067
0"
#2000000000
0$
0>
0t
#2005000000
1$
1>
1t
#2007068068
1"
#2010000000
0$
0>
0t
#2015000000
1$
1>
1t
#2017068068
0"
#2020000000
0$
0>
0t
#2025000000
1$
1>
1t
#2030000000
0$
0>
0t
#2035000000
1$
1>
1t
#2037068068
1'
1?
1n
1u
#2040000000
0$
0>
0t
#2045000000
1$
1>
1t
#2047068068
0'
0?
0n
0u
#2047069069
1"
#2050000000
0$
0>
0t
#2055000000
1$
1>
1t
#2057069069
0"
#2060000000
0$
0>
0t
#2065000000
1$
1>
1t
#2067070070
1"
#2070000000
0$
0>
0t
#2075000000
1$
1>
1t
#2077070070
0"
#2080000000
0$
0>
0t
#2085000000
1$
1>
1t
#2090000000
0$
0>
0t
#2095000000
1$
1>
1t
#2097070070
1'
1?
1n
1u
#2100000000
0$
0>
0t
#2105000000
1$
1>
1t
#2107070070
0'
0?
0n
0u
#2107071071
1"
#2110000000
0$
0>
0t
#2115000000
1$
1>
1t
#2117071071
0"
#2120000000
0$
0>
0t
#2125000000
1$
1>
1t
#2127072072
1"
#2130000000
0$
0>
0t
#2135000000
1$
1>
1t
#2137072072
0"
#2140000000
0$
0>
0t
#2145000000
1$
1>
1t
#2150000000
0$
0>
0t
#2155000000
1$
1>
1t
#2157072072
1'
1?
1n
1u
#2160000000
0$
0>
0t
#2165000000
1$
1>
1t
#2167072072
0'
0?
0n
0u
#2167073073
1"
#2170000000
0$
0>
0t
#2175000000
1$
1>
1t
#2177073073
0"
#2180000000
0$
0>
0t
#2185000000
1$
1>
1t
#2187074074
1"
#2190000000
0$
0>
0t
#2195000000
1$
1>
1t
#2197074074
0"
#2200000000
0$
0>
0t
#2205000000
1$
1>
1t
#2210000000
0$
0>
0t
#2215000000
1$
1>
1t
#2217074074
1'
1?
1n
1u
#2220000000
0$
0>
0t
#2225000000
1$
1>
1t
#2227074074
0'
0?
0n
0u
#2227075075
1"
#2230000000
0$
0>
0t
#2235000000
1$
1>
1t
#2237075075
0"
#2240000000
0$
0>
0t
#2245000000
1$
1>
1t
#2247076076
1"
#2250000000
0$
0>
0t
#2255000000
1$
1>
1t
#2257076076
0"
#2260000000
0$
0>
0t
#2265000000
1$
1>
1t
#2270000000
0$
0>
0t
#2275000000
1$
1>
1t
#2277076076
1'
1?
1n
1u
#2280000000
0$
0>
0t
#2285000000
1$
1>
1t
#2287076076
0'
0?
0n
0u
#2287077077
1"
#2290000000
0$
0>
0t
#2295000000
1$
1>
1t
#2297077077
0"
#2300000000
0$
0>
0t
#2305000000
1$
1>
1t
#2307078078
1"
#2310000000
0$
0>
0t
#2315000000
1$
1>
1t
#2317078078
0"
#2320000000
0$
0>
0t
#2325000000
1$
1>
1t
#2330000000
0$
0>
0t
#2335000000
1$
1>
1t
#2337078078
1'
1?
1n
1u
#2340000000
0$
0>
0t
#2345000000
1$
1>
1t
#2347078078
0'
0?
0n
0u
#2347079079
1"
#2350000000
0$
0>
0t
#2355000000
1$
1>
1t
