sevensegmentdecoderTestbench.vcd
$date
  Thu Apr 23 15:20:40 2026
$end
$version
  GHDL v0
$end
$timescale
  1 fs
$end
$scope module standard $end
$upscope $end
$scope module std_logic_1164 $end
$upscope $end
$scope module numeric_std $end
$upscope $end
$scope module math_real $end
$upscope $end
$scope module sevensegmentdecodertestbench $end
$var reg 4 ! i[3:0] $end
$var reg 7 " abcdefg[6:0] $end
$var reg 1 # reset $end
$var reg 1 $ success $end
$scope module dut $end
$var reg 4 % i[3:0] $end
$var reg 7 & abcdefg[6:0] $end
$upscope $end
$upscope $end
$enddefinitions $end
#0
b0000 !
b0000001 "
1#
1$
b0000 %
b0000001 &
#5000000
0#
#7000000
b0001 !
b1001111 "
b0001 %
b1001111 &
#9000000
b0010 !
b0010010 "
b0010 %
b0010010 &
#11000000
b0011 !
b0000110 "
b0011 %
b0000110 &
#13000000
b0100 !
b1001100 "
b0100 %
b1001100 &
#15000000
b0101 !
b0100100 "
b0101 %
b0100100 &
#17000000
b0110 !
b0100000 "
b0110 %
b0100000 &
#19000000
b0111 !
b0001111 "
b0111 %
b0001111 &
#21000000
b1000 !
b0000000 "
b1000 %
b0000000 &
#23000000
b1001 !
b0000100 "
b1001 %
b0000100 &
#25000000
b1010 !
b0000010 "
b1010 %
b0000010 &
#27000000
b1011 !
b1100000 "
b1011 %
b1100000 &
#29000000
b1100 !
b0110001 "
b1100 %
b0110001 &
#31000000
b1101 !
b0011000 "
b1101 %
b0011000 &
#33000000
b1110 !
b1110000 "
b1110 %
b1110000 &
#35000000
b1111 !
b1111111 "
b1111 %
b1111111 &
